<?xml version="1.0"?>
<robot name="summit_xls_ur5" xmlns:xacro="http://www.ros.org/wiki/xacro"> 

	<!-- Version 1.0 -->
	<!-- ***************** -->
	<!-- Global parameters -->
	<!-- ***************** -->
  
	<xacro:property name="pi" value="3.1415926535897931"/>


	  
	<!-- Flag to select the high or low quality model -->
	<xacro:property name="hq" value="true" />
	
	<!-- Import UR5 arm -->
	<xacro:include filename="$(find ur_description)/urdf/ur5.urdf.xacro" />
	
	<!-- Import base gripper description -->
	<!--xacro:include filename="$(find robotiq_85_description)/urdf/robotiq_85_gripper.urdf.xacro" /-->
	<xacro:include filename="$(find ur_description)/urdf/robotiq_85_gripper.urdf.xacro"/>  <!--For Robotiq Gripper-->    


	<!-- UR5 Arm -->
    <xacro:ur5_robot prefix="arm_" joint_limited="true">		
    </xacro:ur5_robot>

    <xacro:robotiq_85_gripper prefix="" parent="arm_ee_link" >
        <origin xyz="0 0 0" rpy="0 0 0"/>
    </xacro:robotiq_85_gripper> 



	<gazebo>
	   <plugin name="gazebo_grasp_fix" filename="libgazebo_grasp_fix.so">
		    <arm>
		       <arm_name>arm</arm_name>
		       <palm_link> gripper_finger1_knuckle_link </palm_link>
		       <palm_link> gripper_finger2_knuckle_link </palm_link>
		       <gripper_link> gripper_finger1_finger_tip_link </gripper_link>
		       <gripper_link> gripper_finger2_finger_tip_link </gripper_link>
		    </arm>
		   <forces_angle_tolerance>120</forces_angle_tolerance>
		   <update_rate>4</update_rate>
		   <grip_count_threshold>4</grip_count_threshold>
		   <max_grip_count>8</max_grip_count>
		   <release_tolerance>0.005</release_tolerance>
		   <disable_collisions_on_attach>false</disable_collisions_on_attach>
		   <contact_topic> __default_topic__ </contact_topic>
		</plugin>
	</gazebo>


</robot>

